world data
…
Lets first create a blank data set that contains all the countries in the Gleditsch-Ward list (excluding microstates).

# Load country lists
data(gwstates)
# Create crossnational data for 2017
sp <- as.tibble(state_panel(start = "2017-01-01", end = "2017-12-31"))
sp <- left_join(sp, gwstates) %>% 
  filter(microstate==FALSE) %>% 
  select(gwcode, country_name)
sp <- unique(sp)
sp $ year <- 2017
sp

# A tibble: 175 x 3
   gwcode country_name              year
    <int> <chr>                    <dbl>
 1      2 United States of America  2017
 2     20 Canada                    2017
 3     31 Bahamas                   2017
 4     40 Cuba                      2017
 5     41 Haiti                     2017
 6     42 Dominican Republic        2017
 7     51 Jamaica                   2017
 8     52 Trinidad and Tobago       2017
 9     53 Barbados                  2017
10     70 Mexico                    2017
#  with 165 more rows
…
sp $ iso3c[sp $ gwcode==678] <- countrycode("Yemen", 
  origin="country.name", destination="iso3c")
sp $ iso3c[sp $ gwcode==816] <- countrycode("Vietnam", 
  origin="country.name", destination="iso3c")
sp <- sp %>% filter(is.na(iso3c)==FALSE)
sp <- sp %>% select(gwcode, cowc, iso3c, everything())
sp

# A tibble: 173 x 5
   gwcode  cowc iso3c country_name              year
    <int> <int> <chr> <chr>                    <dbl>
 1      2     2 USA   United States of America  2017
 2     20    20 CAN   Canada                    2017
 3     31    31 BHS   Bahamas                   2017
 4     40    40 CUB   Cuba                      2017
 5     41    41 HTI   Haiti                     2017
 6     42    42 DOM   Dominican Republic        2017
 7     51    51 JAM   Jamaica                   2017
 8     52    52 TTO   Trinidad and Tobago       2017
 9     53    53 BRB   Barbados                  2017
10     70    70 MEX   Mexico                    2017
#  with 163 more rows
…
Colonial history

The ICOW Colonial History Data Set https://www.paulhensel.org/icowcol.html

Load the data set.

ch <- read_csv("ICOW Colonial History 1.1/coldata110.csv", na="-9")
ch

# A tibble: 217 x 15
   State Name  ColRuler IndFrom IndDate IndViol IndType SecFrom SecDate
   <int> <chr>    <int>   <int>   <int>   <int>   <int>   <int>   <int>
 1     2 Unit      200     200  178309       1       2      NA      NA
 2    20 Cana      200     200  186707       0       2      NA      NA
 3    31 Baha      200     200  197307       0       2      NA      NA
 4    40 Cuba       230       2  190205       0       2      NA      NA
 5    41 Haiti      220     220  180401       1       2      NA      NA
 6    42 Domi      230      41  184402       1       3      41  184402
 7    51 Jama      200     200  196208       0       2      NA      NA
 8    52 Trin      200     200  196208       0       2      NA      NA
 9    53 Barb      200     200  196611       0       2      NA      NA
10    54 Domi      200     200  197811       0       2      NA      NA
#  with 207 more rows, and 6 more variables: SecViol <int>, Into <int>,
#   IntoDate <int>, COWsys <int>, GWsys <int>, Notes <chr>

Rename some variables and drop others.

ch <- ch %>% rename(cowc = State) %>% select(cowc, ColRuler)
ch

# A tibble: 217 x 2
    cowc ColRuler
   <int>    <int>
 1     2      200
 2    20      200
 3    31      200
 4    40      230
 5    41      220
 6    42      230
 7    51      200
 8    52      200
 9    53      200
10    54      200
#  with 207 more rows
Convert the COW codes for the colonial ruler into country names.

ch$colony <- countrycode(ch$ColRuler, origin = "cown", destination = "country.name")
ch <- ch %>% select(cowc, colony)

Merge this with the state panel data.

dim(sp)

[1] 173   7

sp <- left_join(sp, ch)
sp

# A tibble: 173 x 8
   gwcode  cowc iso3c country_name     year region   region7        colony 
    <int> <int> <chr> <chr>           <dbl> <chr>    <chr>          <chr>  
 1      2     2 USA   United States   2017 Norther Western Europ United
 2     20    20 CAN   Canada           2017 Norther Western Europ United
 3     31    31 BHS   Bahamas          2017 Caribbe Latin America United
 4     40    40 CUB   Cuba             2017 Caribbe Latin America Spain  
 5     41    41 HTI   Haiti            2017 Caribbe Latin America France 
 6     42    42 DOM   Dominican Repu  2017 Caribbe Latin America Spain  
 7     51    51 JAM   Jamaica          2017 Caribbe Latin America United
 8     52    52 TTO   Trinidad and T  2017 Caribbe Latin America United
 9     53    53 BRB   Barbados         2017 Caribbe Latin America United
10     70    70 MEX   Mexico           2017 Central Latin America Spain  
#  with 163 more rows
…
https://nsd.no/macrodataguide/set.html?id=16&sub=1

ef <- read_excel("2003_fractionalization.xls", skip = 1, na = ".")
ef <- ef[2:216, ]
ef <- ef %>% select(Country, Ethnic, Language, Religion)
ef$Ethnic <- as.numeric(ef$Ethnic)
ef$Language <- as.numeric(ef$Language)
ef$Religion <- as.numeric(ef$Religion)
ef <- ef %>% rename(frac_eth = Ethnic, frac_lan = Language, frac_rel = Religion)
ef$cowc <- countrycode(ef$Country, origin = "country.name", destination = "cown")

# Omit cases where COW code is missing
ef %>% filter(is.na(cowc))

# A tibble: 24 x 5
   Country          frac_eth frac_lan frac_rel  cowc
   <chr>               <dbl>    <dbl>    <dbl> <int>
 1 American Samoa         NA   0.173    0.640     NA
 2 Aruba                  NA   0.389    0.411     NA
 3 Bermuda                NA  NA        0.711     NA
 4 Faroe Islands          NA  NA        0.315     NA
 5 French Guiana          NA   0.115    0.496     NA
 6 French Polynesia       NA   0.608    0.581     NA
 7 Gaza Strip             NA   0.0104   0.0342    NA
 8 Greenland              NA   0.219    0.459     NA
 9 Guadeloupe             NA   0.0933   0.307     NA
10 Guam                   NA   0.732    0.408     NA
#  with 14 more rows

ef <- ef %>% filter(is.na(cowc) == FALSE)
ef

# A tibble: 191 x 5
   Country             frac_eth frac_lan frac_rel  cowc
   <chr>                  <dbl>    <dbl>    <dbl> <int>
 1 Afghanistan           0.769    0.614   0.272     700
 2 Albania               0.220    0.0399  0.472     339
 3 Algeria               0.339    0.443   0.00913   615
 4 Andorra               0.714    0.685   0.233     232
 5 Angola                0.787    0.787   0.628     540
 6 Antigua and Barbuda   0.164    0.106   0.684      58
 7 Argentina             0.255    0.0618  0.224     160
 8 Armenia               0.127    0.129   0.458     371
 9 Australia             0.0929   0.335   0.821     900
10 Austria               0.107    0.152   0.415     305
#  with 181 more rows

Merge this with the state panel data.

ef <- ef %>% select(-Country)
sp <- left_join(sp, ef)
sp

# A tibble: 173 x 11
   gwcode  cowc iso3c country_name  year region region7 colony frac_eth
    <int> <int> <chr> <chr>        <dbl> <chr>  <chr>   <chr>     <dbl>
 1      2     2 USA   United Stat  2017 North Wester Unite    0.490
 2     20    20 CAN   Canada        2017 North Wester Unite    0.712
 3     31    31 BHS   Bahamas       2017 Carib Latin  Unite    0.423
 4     40    40 CUB   Cuba          2017 Carib Latin  Spain     0.591
 5     41    41 HTI   Haiti         2017 Carib Latin  France    0.095
 6     42    42 DOM   Dominican R  2017 Carib Latin  Spain     0.429
 7     51    51 JAM   Jamaica       2017 Carib Latin  Unite    0.413
 8     52    52 TTO   Trinidad an  2017 Carib Latin  Unite    0.648
 9     53    53 BRB   Barbados      2017 Carib Latin  Unite    0.142
10     70    70 MEX   Mexico        2017 Centr Latin  Spain     0.542
#  with 163 more rows, and 2 more variables: frac_lan <dbl>,
#   frac_rel <dbl>
…
# Linguistic fractionalization
lf.cuts <- sp$frac_lan %>% quantile(c(1/3, 2/3), na.rm = TRUE)
sp$frac_lan3 <- ifelse(sp$frac_lan < lf.cuts[1], "Low", ifelse(sp$frac_lan < 
    lf.cuts[2], "Medium", "High"))

# Religious fractionalization
rf.cuts <- sp$frac_rel %>% quantile(c(1/3, 2/3), na.rm = TRUE)
sp$frac_rel3 <- ifelse(sp$frac_rel < rf.cuts[1], "Low", ifelse(sp$frac_rel < 
    rf.cuts[2], "Medium", "High"))

sp <- sp %>% select(gwcode, cowc, iso3c, country_name, frac_eth, frac_eth3, 
    frac_lan, frac_lan3, frac_rel, frac_rel3, everything())
sp

# A tibble: 173 x 14
   gwcode  cowc iso3c country_name frac_eth frac_eth3 frac_lan frac_lan3
    <int> <int> <chr> <chr>           <dbl> <ord>        <dbl> <chr>    
 1      2     2 USA   United Stat    0.490 Medium      0.251  Medium   
 2     20    20 CAN   Canada          0.712 High        0.577  High     
 3     31    31 BHS   Bahamas         0.423 Medium      0.185  Low      
 4     40    40 CUB   Cuba            0.591 Medium     NA      <NA>     
 5     41    41 HTI   Haiti           0.095 Low        NA      <NA>     
 6     42    42 DOM   Dominican R    0.429 Medium      0.0395 Low      
 7     51    51 JAM   Jamaica         0.413 Medium      0.110  Low      
 8     52    52 TTO   Trinidad an    0.648 High        0.125  Low      
 9     53    53 BRB   Barbados        0.142 Low         0.0926 Low      
10     70    70 MEX   Mexico          0.542 Medium      0.151  Low      
#  with 163 more rows, and 6 more variables: frac_rel <dbl>,
#   frac_rel3 <chr>, year <dbl>, region <chr>, region7 <chr>, colony <chr>
…
     Budhism Christianity     Hinduism        Islam      Judaism 
           9          126            3           47            1 
Nonreligious        Other 
           4            4 

sp <- left_join(sp, wrp)
sp

# A tibble: 173 x 15
   gwcode  cowc iso3c country_name frac_eth frac_eth3 frac_lan frac_lan3
    <int> <int> <chr> <chr>           <dbl> <ord>        <dbl> <chr>    
 1      2     2 USA   United Stat    0.490 Medium      0.251  Medium   
 2     20    20 CAN   Canada          0.712 High        0.577  High     
 3     31    31 BHS   Bahamas         0.423 Medium      0.185  Low      
 4     40    40 CUB   Cuba            0.591 Medium     NA      <NA>     
 5     41    41 HTI   Haiti           0.095 Low        NA      <NA>     
 6     42    42 DOM   Dominican R    0.429 Medium      0.0395 Low      
 7     51    51 JAM   Jamaica         0.413 Medium      0.110  Low      
 8     52    52 TTO   Trinidad an    0.648 High        0.125  Low      
 9     53    53 BRB   Barbados        0.142 Low         0.0926 Low      
10     70    70 MEX   Mexico          0.542 Medium      0.151  Low      
#  with 163 more rows, and 7 more variables: frac_rel <dbl>,
#   frac_rel3 <chr>, year <dbl>, region <chr>, region7 <chr>,
#   colony <chr>, religion <chr>
…
